<?xml version="1.0" encoding="UTF-8" standalone="no"?>
<!DOCTYPE svg PUBLIC "-//W3C//DTD SVG 1.1//EN"
 "http://www.w3.org/Graphics/SVG/1.1/DTD/svg11.dtd">
<!-- Generated by graphviz version 2.38.0 (20140413.2041)
 -->
<!-- Title: %3 Pages: 1 -->
<svg width="2827pt" height="280pt"
 viewBox="0.00 0.00 2826.98 280.00" xmlns="http://www.w3.org/2000/svg" xmlns:xlink="http://www.w3.org/1999/xlink">
<g id="graph0" class="graph" transform="scale(1 1) rotate(0) translate(4 276)">
<title>%3</title>
<polygon fill="white" stroke="none" points="-4,4 -4,-276 2822.98,-276 2822.98,4 -4,4"/>
<!-- Rhttp://wifa.uni&#45;leipzig.de/semweb/Sonne -->
<g id="node1" class="node"><title>Rhttp://wifa.uni&#45;leipzig.de/semweb/Sonne</title>
<g id="a_node1"><a xlink:href="http://wifa.uni-leipzig.de/semweb/Sonne" xlink:title="http://wifa.uni&#45;leipzig.de/semweb/Sonne">
<ellipse fill="none" stroke="blue" cx="673.5" cy="-254" rx="196.065" ry="18"/>
<text text-anchor="middle" x="673.5" y="-250.3" font-family="Times,serif" font-size="14.00">http://wifa.uni&#45;leipzig.de/semweb/Sonne</text>
</a>
</g>
</g>
<!-- L6.957000e+5 -->
<g id="node2" class="node"><title>L6.957000e+5</title>
<polygon fill="none" stroke="black" points="0,-162.5 0,-198.5 113,-198.5 113,-162.5 0,-162.5"/>
<text text-anchor="middle" x="56.5" y="-176.8" font-family="Times,serif" font-size="14.00">6.957000e+5</text>
</g>
<!-- Rhttp://wifa.uni&#45;leipzig.de/semweb/Sonne&#45;&gt;L6.957000e+5 -->
<g id="edge1" class="edge"><title>Rhttp://wifa.uni&#45;leipzig.de/semweb/Sonne&#45;&gt;L6.957000e+5</title>
<path fill="none" stroke="black" d="M509.48,-244.089C401.851,-236.541 258.028,-223.234 123.199,-199.156"/>
<polygon fill="black" stroke="black" points="123.558,-195.665 113.095,-197.328 122.312,-202.553 123.558,-195.665"/>
</g>
<!-- L6.000000e+9 -->
<g id="node3" class="node"><title>L6.000000e+9</title>
<polygon fill="none" stroke="black" points="131,-162.5 131,-198.5 244,-198.5 244,-162.5 131,-162.5"/>
<text text-anchor="middle" x="187.5" y="-176.8" font-family="Times,serif" font-size="14.00">6.000000e+9</text>
</g>
<!-- Rhttp://wifa.uni&#45;leipzig.de/semweb/Sonne&#45;&gt;L6.000000e+9 -->
<g id="edge2" class="edge"><title>Rhttp://wifa.uni&#45;leipzig.de/semweb/Sonne&#45;&gt;L6.000000e+9</title>
<path fill="none" stroke="black" d="M542.25,-240.605C461.667,-231.926 356.277,-218.665 254.144,-198.984"/>
<polygon fill="black" stroke="black" points="254.757,-195.538 244.272,-197.06 253.417,-202.409 254.757,-195.538"/>
</g>
<!-- Rhttp://wifa.uni&#45;leipzig.de/semweb/Merkur -->
<g id="node4" class="node"><title>Rhttp://wifa.uni&#45;leipzig.de/semweb/Merkur</title>
<g id="a_node4"><a xlink:href="http://wifa.uni-leipzig.de/semweb/Merkur" xlink:title="http://wifa.uni&#45;leipzig.de/semweb/Merkur">
<ellipse fill="none" stroke="blue" cx="465.5" cy="-180.5" rx="203.364" ry="18"/>
<text text-anchor="middle" x="465.5" y="-176.8" font-family="Times,serif" font-size="14.00">http://wifa.uni&#45;leipzig.de/semweb/Merkur</text>
</a>
</g>
</g>
<!-- Rhttp://wifa.uni&#45;leipzig.de/semweb/Sonne&#45;&gt;Rhttp://wifa.uni&#45;leipzig.de/semweb/Merkur -->
<g id="edge3" class="edge"><title>Rhttp://wifa.uni&#45;leipzig.de/semweb/Sonne&#45;&gt;Rhttp://wifa.uni&#45;leipzig.de/semweb/Merkur</title>
<path fill="none" stroke="black" d="M625.519,-236.507C595.076,-226.042 555.503,-212.439 523.329,-201.379"/>
<polygon fill="black" stroke="black" points="524.194,-197.975 513.599,-198.034 521.918,-204.595 524.194,-197.975"/>
</g>
<!-- Rhttp://wifa.uni&#45;leipzig.de/semweb/Venus -->
<g id="node5" class="node"><title>Rhttp://wifa.uni&#45;leipzig.de/semweb/Venus</title>
<g id="a_node5"><a xlink:href="http://wifa.uni-leipzig.de/semweb/Venus" xlink:title="http://wifa.uni&#45;leipzig.de/semweb/Venus">
<ellipse fill="none" stroke="blue" cx="882.5" cy="-180.5" rx="195.765" ry="18"/>
<text text-anchor="middle" x="882.5" y="-176.8" font-family="Times,serif" font-size="14.00">http://wifa.uni&#45;leipzig.de/semweb/Venus</text>
</a>
</g>
</g>
<!-- Rhttp://wifa.uni&#45;leipzig.de/semweb/Sonne&#45;&gt;Rhttp://wifa.uni&#45;leipzig.de/semweb/Venus -->
<g id="edge4" class="edge"><title>Rhttp://wifa.uni&#45;leipzig.de/semweb/Sonne&#45;&gt;Rhttp://wifa.uni&#45;leipzig.de/semweb/Venus</title>
<path fill="none" stroke="black" d="M721.711,-236.507C752.301,-226.042 792.064,-212.439 824.393,-201.379"/>
<polygon fill="black" stroke="black" points="825.841,-204.583 834.17,-198.034 823.575,-197.959 825.841,-204.583"/>
</g>
<!-- Rhttp://wifa.uni&#45;leipzig.de/semweb/Erde -->
<g id="node6" class="node"><title>Rhttp://wifa.uni&#45;leipzig.de/semweb/Erde</title>
<g id="a_node6"><a xlink:href="http://wifa.uni-leipzig.de/semweb/Erde" xlink:title="http://wifa.uni&#45;leipzig.de/semweb/Erde">
<ellipse fill="none" stroke="blue" cx="1286.5" cy="-180.5" rx="190.366" ry="18"/>
<text text-anchor="middle" x="1286.5" y="-176.8" font-family="Times,serif" font-size="14.00">http://wifa.uni&#45;leipzig.de/semweb/Erde</text>
</a>
</g>
</g>
<!-- Rhttp://wifa.uni&#45;leipzig.de/semweb/Sonne&#45;&gt;Rhttp://wifa.uni&#45;leipzig.de/semweb/Erde -->
<g id="edge5" class="edge"><title>Rhttp://wifa.uni&#45;leipzig.de/semweb/Sonne&#45;&gt;Rhttp://wifa.uni&#45;leipzig.de/semweb/Erde</title>
<path fill="none" stroke="black" d="M789.521,-239.467C895.8,-227.071 1052.7,-208.77 1161.67,-196.06"/>
<polygon fill="black" stroke="black" points="1162.21,-199.522 1171.73,-194.886 1161.39,-192.569 1162.21,-199.522"/>
</g>
<!-- Rhttp://wifa.uni&#45;leipzig.de/semweb/Mars -->
<g id="node7" class="node"><title>Rhttp://wifa.uni&#45;leipzig.de/semweb/Mars</title>
<g id="a_node7"><a xlink:href="http://wifa.uni-leipzig.de/semweb/Mars" xlink:title="http://wifa.uni&#45;leipzig.de/semweb/Mars">
<ellipse fill="none" stroke="blue" cx="2210.5" cy="-180.5" rx="192.266" ry="18"/>
<text text-anchor="middle" x="2210.5" y="-176.8" font-family="Times,serif" font-size="14.00">http://wifa.uni&#45;leipzig.de/semweb/Mars</text>
</a>
</g>
</g>
<!-- Rhttp://wifa.uni&#45;leipzig.de/semweb/Sonne&#45;&gt;Rhttp://wifa.uni&#45;leipzig.de/semweb/Mars -->
<g id="edge6" class="edge"><title>Rhttp://wifa.uni&#45;leipzig.de/semweb/Sonne&#45;&gt;Rhttp://wifa.uni&#45;leipzig.de/semweb/Mars</title>
<path fill="none" stroke="black" d="M844.228,-245.058C1137.58,-231.411 1734.46,-203.645 2032.65,-189.774"/>
<polygon fill="black" stroke="black" points="2032.86,-193.267 2042.69,-189.306 2032.54,-186.275 2032.86,-193.267"/>
</g>
<!-- L2.439700e+3 -->
<g id="node8" class="node"><title>L2.439700e+3</title>
<polygon fill="none" stroke="black" points="474,-88.5 474,-124.5 587,-124.5 587,-88.5 474,-88.5"/>
<text text-anchor="middle" x="530.5" y="-102.8" font-family="Times,serif" font-size="14.00">2.439700e+3</text>
</g>
<!-- Rhttp://wifa.uni&#45;leipzig.de/semweb/Merkur&#45;&gt;L2.439700e+3 -->
<g id="edge7" class="edge"><title>Rhttp://wifa.uni&#45;leipzig.de/semweb/Merkur&#45;&gt;L2.439700e+3</title>
<path fill="none" stroke="black" d="M480.904,-162.437C488.961,-153.512 498.979,-142.416 507.897,-132.537"/>
<polygon fill="black" stroke="black" points="510.652,-134.709 514.755,-124.941 505.456,-130.018 510.652,-134.709"/>
</g>
<!-- L1.407600e+3 -->
<g id="node9" class="node"><title>L1.407600e+3</title>
<polygon fill="none" stroke="black" points="343,-88.5 343,-124.5 456,-124.5 456,-88.5 343,-88.5"/>
<text text-anchor="middle" x="399.5" y="-102.8" font-family="Times,serif" font-size="14.00">1.407600e+3</text>
</g>
<!-- Rhttp://wifa.uni&#45;leipzig.de/semweb/Merkur&#45;&gt;L1.407600e+3 -->
<g id="edge8" class="edge"><title>Rhttp://wifa.uni&#45;leipzig.de/semweb/Merkur&#45;&gt;L1.407600e+3</title>
<path fill="none" stroke="black" d="M449.859,-162.437C441.678,-153.512 431.506,-142.416 422.451,-132.537"/>
<polygon fill="black" stroke="black" points="424.825,-129.947 415.487,-124.941 419.665,-134.677 424.825,-129.947"/>
</g>
<!-- L6.051900e+3 -->
<g id="node10" class="node"><title>L6.051900e+3</title>
<polygon fill="none" stroke="black" points="861,-88.5 861,-124.5 974,-124.5 974,-88.5 861,-88.5"/>
<text text-anchor="middle" x="917.5" y="-102.8" font-family="Times,serif" font-size="14.00">6.051900e+3</text>
</g>
<!-- Rhttp://wifa.uni&#45;leipzig.de/semweb/Venus&#45;&gt;L6.051900e+3 -->
<g id="edge9" class="edge"><title>Rhttp://wifa.uni&#45;leipzig.de/semweb/Venus&#45;&gt;L6.051900e+3</title>
<path fill="none" stroke="black" d="M890.795,-162.437C894.918,-153.954 899.996,-143.509 904.612,-134.013"/>
<polygon fill="black" stroke="black" points="907.798,-135.465 909.022,-124.941 901.502,-132.404 907.798,-135.465"/>
</g>
<!-- L5.832450e+3 -->
<g id="node11" class="node"><title>L5.832450e+3</title>
<polygon fill="none" stroke="black" points="730,-88.5 730,-124.5 843,-124.5 843,-88.5 730,-88.5"/>
<text text-anchor="middle" x="786.5" y="-102.8" font-family="Times,serif" font-size="14.00">5.832450e+3</text>
</g>
<!-- Rhttp://wifa.uni&#45;leipzig.de/semweb/Venus&#45;&gt;L5.832450e+3 -->
<g id="edge10" class="edge"><title>Rhttp://wifa.uni&#45;leipzig.de/semweb/Venus&#45;&gt;L5.832450e+3</title>
<path fill="none" stroke="black" d="M859.749,-162.437C847.168,-153.001 831.352,-141.139 817.639,-130.854"/>
<polygon fill="black" stroke="black" points="819.52,-127.89 809.42,-124.69 815.32,-133.49 819.52,-127.89"/>
</g>
<!-- L6.372800e+3 -->
<g id="node12" class="node"><title>L6.372800e+3</title>
<polygon fill="none" stroke="black" points="1194,-88.5 1194,-124.5 1307,-124.5 1307,-88.5 1194,-88.5"/>
<text text-anchor="middle" x="1250.5" y="-102.8" font-family="Times,serif" font-size="14.00">6.372800e+3</text>
</g>
<!-- Rhttp://wifa.uni&#45;leipzig.de/semweb/Erde&#45;&gt;L6.372800e+3 -->
<g id="edge11" class="edge"><title>Rhttp://wifa.uni&#45;leipzig.de/semweb/Erde&#45;&gt;L6.372800e+3</title>
<path fill="none" stroke="black" d="M1277.97,-162.437C1273.73,-153.954 1268.5,-143.509 1263.76,-134.013"/>
<polygon fill="black" stroke="black" points="1266.82,-132.32 1259.22,-124.941 1260.56,-135.45 1266.82,-132.32"/>
</g>
<!-- Rhttp://wifa.uni&#45;leipzig.de/semweb/Mond -->
<g id="node13" class="node"><title>Rhttp://wifa.uni&#45;leipzig.de/semweb/Mond</title>
<g id="a_node13"><a xlink:href="http://wifa.uni-leipzig.de/semweb/Mond" xlink:title="http://wifa.uni&#45;leipzig.de/semweb/Mond">
<ellipse fill="none" stroke="blue" cx="1519.5" cy="-106.5" rx="194.166" ry="18"/>
<text text-anchor="middle" x="1519.5" y="-102.8" font-family="Times,serif" font-size="14.00">http://wifa.uni&#45;leipzig.de/semweb/Mond</text>
</a>
</g>
</g>
<!-- Rhttp://wifa.uni&#45;leipzig.de/semweb/Erde&#45;&gt;Rhttp://wifa.uni&#45;leipzig.de/semweb/Mond -->
<g id="edge12" class="edge"><title>Rhttp://wifa.uni&#45;leipzig.de/semweb/Erde&#45;&gt;Rhttp://wifa.uni&#45;leipzig.de/semweb/Mond</title>
<path fill="none" stroke="black" d="M1339.37,-163.162C1374.25,-152.384 1420.11,-138.213 1456.83,-126.867"/>
<polygon fill="black" stroke="black" points="1457.91,-130.194 1466.44,-123.898 1455.85,-123.506 1457.91,-130.194"/>
</g>
<!-- L2.400000e+1 -->
<g id="node14" class="node"><title>L2.400000e+1</title>
<polygon fill="none" stroke="black" points="1063,-88.5 1063,-124.5 1176,-124.5 1176,-88.5 1063,-88.5"/>
<text text-anchor="middle" x="1119.5" y="-102.8" font-family="Times,serif" font-size="14.00">2.400000e+1</text>
</g>
<!-- Rhttp://wifa.uni&#45;leipzig.de/semweb/Erde&#45;&gt;L2.400000e+1 -->
<g id="edge13" class="edge"><title>Rhttp://wifa.uni&#45;leipzig.de/semweb/Erde&#45;&gt;L2.400000e+1</title>
<path fill="none" stroke="black" d="M1247.77,-162.801C1224.19,-152.634 1193.84,-139.551 1168.59,-128.663"/>
<polygon fill="black" stroke="black" points="1169.75,-125.354 1159.18,-124.609 1166.98,-131.782 1169.75,-125.354"/>
</g>
<!-- L3.402500e+3 -->
<g id="node15" class="node"><title>L3.402500e+3</title>
<polygon fill="none" stroke="black" points="2154,-88.5 2154,-124.5 2267,-124.5 2267,-88.5 2154,-88.5"/>
<text text-anchor="middle" x="2210.5" y="-102.8" font-family="Times,serif" font-size="14.00">3.402500e+3</text>
</g>
<!-- Rhttp://wifa.uni&#45;leipzig.de/semweb/Mars&#45;&gt;L3.402500e+3 -->
<g id="edge14" class="edge"><title>Rhttp://wifa.uni&#45;leipzig.de/semweb/Mars&#45;&gt;L3.402500e+3</title>
<path fill="none" stroke="black" d="M2210.5,-162.437C2210.5,-154.307 2210.5,-144.376 2210.5,-135.205"/>
<polygon fill="black" stroke="black" points="2214,-134.941 2210.5,-124.941 2207,-134.941 2214,-134.941"/>
</g>
<!-- Rhttp://wifa.uni&#45;leipzig.de/semweb/Phobos -->
<g id="node16" class="node"><title>Rhttp://wifa.uni&#45;leipzig.de/semweb/Phobos</title>
<g id="a_node16"><a xlink:href="http://wifa.uni-leipzig.de/semweb/Phobos" xlink:title="http://wifa.uni&#45;leipzig.de/semweb/Phobos">
<ellipse fill="none" stroke="blue" cx="2617.5" cy="-106.5" rx="201.464" ry="18"/>
<text text-anchor="middle" x="2617.5" y="-102.8" font-family="Times,serif" font-size="14.00">http://wifa.uni&#45;leipzig.de/semweb/Phobos</text>
</a>
</g>
</g>
<!-- Rhttp://wifa.uni&#45;leipzig.de/semweb/Mars&#45;&gt;Rhttp://wifa.uni&#45;leipzig.de/semweb/Phobos -->
<g id="edge15" class="edge"><title>Rhttp://wifa.uni&#45;leipzig.de/semweb/Mars&#45;&gt;Rhttp://wifa.uni&#45;leipzig.de/semweb/Phobos</title>
<path fill="none" stroke="black" d="M2296.32,-164.319C2362.11,-152.679 2452.92,-136.615 2521.2,-124.537"/>
<polygon fill="black" stroke="black" points="2521.86,-127.973 2531.1,-122.784 2520.64,-121.08 2521.86,-127.973"/>
</g>
<!-- Rhttp://wifa.uni&#45;leipzig.de/semweb/Deimos -->
<g id="node17" class="node"><title>Rhttp://wifa.uni&#45;leipzig.de/semweb/Deimos</title>
<g id="a_node17"><a xlink:href="http://wifa.uni-leipzig.de/semweb/Deimos" xlink:title="http://wifa.uni&#45;leipzig.de/semweb/Deimos">
<ellipse fill="none" stroke="blue" cx="1933.5" cy="-106.5" rx="202.264" ry="18"/>
<text text-anchor="middle" x="1933.5" y="-102.8" font-family="Times,serif" font-size="14.00">http://wifa.uni&#45;leipzig.de/semweb/Deimos</text>
</a>
</g>
</g>
<!-- Rhttp://wifa.uni&#45;leipzig.de/semweb/Mars&#45;&gt;Rhttp://wifa.uni&#45;leipzig.de/semweb/Deimos -->
<g id="edge16" class="edge"><title>Rhttp://wifa.uni&#45;leipzig.de/semweb/Mars&#45;&gt;Rhttp://wifa.uni&#45;leipzig.de/semweb/Deimos</title>
<path fill="none" stroke="black" d="M2148.68,-163.431C2106.28,-152.411 2049.89,-137.753 2005.47,-126.207"/>
<polygon fill="black" stroke="black" points="2006.17,-122.772 1995.61,-123.644 2004.41,-129.547 2006.17,-122.772"/>
</g>
<!-- L2.461667e+1 -->
<g id="node18" class="node"><title>L2.461667e+1</title>
<polygon fill="none" stroke="black" points="2285,-88.5 2285,-124.5 2398,-124.5 2398,-88.5 2285,-88.5"/>
<text text-anchor="middle" x="2341.5" y="-102.8" font-family="Times,serif" font-size="14.00">2.461667e+1</text>
</g>
<!-- Rhttp://wifa.uni&#45;leipzig.de/semweb/Mars&#45;&gt;L2.461667e+1 -->
<g id="edge17" class="edge"><title>Rhttp://wifa.uni&#45;leipzig.de/semweb/Mars&#45;&gt;L2.461667e+1</title>
<path fill="none" stroke="black" d="M2241.21,-162.619C2259.23,-152.716 2282.2,-140.093 2301.61,-129.427"/>
<polygon fill="black" stroke="black" points="2303.45,-132.408 2310.52,-124.525 2300.08,-126.274 2303.45,-132.408"/>
</g>
<!-- LMond -->
<g id="node19" class="node"><title>LMond</title>
<polygon fill="none" stroke="black" points="1594.5,-0.5 1594.5,-36.5 1652.5,-36.5 1652.5,-0.5 1594.5,-0.5"/>
<text text-anchor="middle" x="1623.5" y="-14.8" font-family="Times,serif" font-size="14.00">Mond</text>
</g>
<!-- Rhttp://wifa.uni&#45;leipzig.de/semweb/Mond&#45;&gt;LMond -->
<g id="edge18" class="edge"><title>Rhttp://wifa.uni&#45;leipzig.de/semweb/Mond&#45;&gt;LMond</title>
<path fill="none" stroke="black" d="M1540.05,-88.5092C1555.61,-75.6365 1577.2,-57.7826 1594.53,-43.46"/>
<polygon fill="black" stroke="black" points="1597.16,-45.8198 1602.64,-36.7499 1592.7,-40.4253 1597.16,-45.8198"/>
</g>
<!-- LMoon -->
<g id="node20" class="node"><title>LMoon</title>
<polygon fill="none" stroke="black" points="1388,-0.5 1388,-36.5 1445,-36.5 1445,-0.5 1388,-0.5"/>
<text text-anchor="middle" x="1416.5" y="-14.8" font-family="Times,serif" font-size="14.00">Moon</text>
</g>
<!-- Rhttp://wifa.uni&#45;leipzig.de/semweb/Mond&#45;&gt;LMoon -->
<g id="edge19" class="edge"><title>Rhttp://wifa.uni&#45;leipzig.de/semweb/Mond&#45;&gt;LMoon</title>
<path fill="none" stroke="black" d="M1499.15,-88.5092C1483.73,-75.6365 1462.35,-57.7826 1445.2,-43.46"/>
<polygon fill="black" stroke="black" points="1447.08,-40.4725 1437.16,-36.7499 1442.59,-45.8457 1447.08,-40.4725"/>
</g>
<!-- Rhttp://wifa.uni&#45;leipzig.de/semweb/Trabant -->
<g id="node21" class="node"><title>Rhttp://wifa.uni&#45;leipzig.de/semweb/Trabant</title>
<g id="a_node21"><a xlink:href="http://wifa.uni-leipzig.de/semweb/Trabant" xlink:title="http://wifa.uni&#45;leipzig.de/semweb/Trabant">
<ellipse fill="none" stroke="blue" cx="2212.5" cy="-18.5" rx="204.164" ry="18"/>
<text text-anchor="middle" x="2212.5" y="-14.8" font-family="Times,serif" font-size="14.00">http://wifa.uni&#45;leipzig.de/semweb/Trabant</text>
</a>
</g>
</g>
<!-- Rhttp://wifa.uni&#45;leipzig.de/semweb/Mond&#45;&gt;Rhttp://wifa.uni&#45;leipzig.de/semweb/Trabant -->
<g id="edge20" class="edge"><title>Rhttp://wifa.uni&#45;leipzig.de/semweb/Mond&#45;&gt;Rhttp://wifa.uni&#45;leipzig.de/semweb/Trabant</title>
<path fill="none" stroke="black" d="M1630.84,-91.6826C1756.23,-76.1225 1959.4,-50.9095 2089.41,-34.7752"/>
<polygon fill="black" stroke="black" points="2089.93,-38.2379 2099.42,-33.533 2089.07,-31.2912 2089.93,-38.2379"/>
<text text-anchor="middle" x="1935.5" y="-58.8" font-family="Times,serif" font-size="14.00">rdf:type</text>
</g>
<!-- L1.737100e+3 -->
<g id="node22" class="node"><title>L1.737100e+3</title>
<polygon fill="none" stroke="black" points="1463,-0.5 1463,-36.5 1576,-36.5 1576,-0.5 1463,-0.5"/>
<text text-anchor="middle" x="1519.5" y="-14.8" font-family="Times,serif" font-size="14.00">1.737100e+3</text>
</g>
<!-- Rhttp://wifa.uni&#45;leipzig.de/semweb/Mond&#45;&gt;L1.737100e+3 -->
<g id="edge21" class="edge"><title>Rhttp://wifa.uni&#45;leipzig.de/semweb/Mond&#45;&gt;L1.737100e+3</title>
<path fill="none" stroke="black" d="M1519.5,-88.0966C1519.5,-76.2459 1519.5,-60.3169 1519.5,-46.7917"/>
<polygon fill="black" stroke="black" points="1523,-46.584 1519.5,-36.584 1516,-46.584 1523,-46.584"/>
</g>
<!-- Rhttp://wifa.uni&#45;leipzig.de/semweb/Phobos&#45;&gt;Rhttp://wifa.uni&#45;leipzig.de/semweb/Trabant -->
<g id="edge24" class="edge"><title>Rhttp://wifa.uni&#45;leipzig.de/semweb/Phobos&#45;&gt;Rhttp://wifa.uni&#45;leipzig.de/semweb/Trabant</title>
<path fill="none" stroke="black" d="M2543.22,-89.7263C2473.64,-74.9525 2369.76,-52.8945 2297.04,-37.4527"/>
<polygon fill="black" stroke="black" points="2297.51,-33.9727 2287,-35.3191 2296.05,-40.82 2297.51,-33.9727"/>
<text text-anchor="middle" x="2467.5" y="-58.8" font-family="Times,serif" font-size="14.00">rdf:type</text>
</g>
<!-- LPhobos -->
<g id="node23" class="node"><title>LPhobos</title>
<polygon fill="none" stroke="black" points="2637.5,-0.5 2637.5,-36.5 2705.5,-36.5 2705.5,-0.5 2637.5,-0.5"/>
<text text-anchor="middle" x="2671.5" y="-14.8" font-family="Times,serif" font-size="14.00">Phobos</text>
</g>
<!-- Rhttp://wifa.uni&#45;leipzig.de/semweb/Phobos&#45;&gt;LPhobos -->
<g id="edge22" class="edge"><title>Rhttp://wifa.uni&#45;leipzig.de/semweb/Phobos&#45;&gt;LPhobos</title>
<path fill="none" stroke="black" d="M2628.17,-88.5092C2635.88,-76.2216 2646.45,-59.3954 2655.22,-45.4342"/>
<polygon fill="black" stroke="black" points="2658.32,-47.08 2660.67,-36.7499 2652.39,-43.3576 2658.32,-47.08"/>
</g>
<!-- L1.110000e+1 -->
<g id="node24" class="node"><title>L1.110000e+1</title>
<polygon fill="none" stroke="black" points="2506,-0.5 2506,-36.5 2619,-36.5 2619,-0.5 2506,-0.5"/>
<text text-anchor="middle" x="2562.5" y="-14.8" font-family="Times,serif" font-size="14.00">1.110000e+1</text>
</g>
<!-- Rhttp://wifa.uni&#45;leipzig.de/semweb/Phobos&#45;&gt;L1.110000e+1 -->
<g id="edge23" class="edge"><title>Rhttp://wifa.uni&#45;leipzig.de/semweb/Phobos&#45;&gt;L1.110000e+1</title>
<path fill="none" stroke="black" d="M2606.63,-88.5092C2598.78,-76.2216 2588.01,-59.3954 2579.09,-45.4342"/>
<polygon fill="black" stroke="black" points="2581.87,-43.2887 2573.53,-36.7499 2575.97,-47.0601 2581.87,-43.2887"/>
</g>
<!-- Rhttp://wifa.uni&#45;leipzig.de/semweb/Deimos&#45;&gt;Rhttp://wifa.uni&#45;leipzig.de/semweb/Trabant -->
<g id="edge27" class="edge"><title>Rhttp://wifa.uni&#45;leipzig.de/semweb/Deimos&#45;&gt;Rhttp://wifa.uni&#45;leipzig.de/semweb/Trabant</title>
<path fill="none" stroke="black" d="M1986.63,-89.1216C2033.03,-74.8211 2100.43,-54.044 2149.53,-38.9113"/>
<polygon fill="black" stroke="black" points="2150.56,-42.2541 2159.09,-35.9636 2148.5,-35.5647 2150.56,-42.2541"/>
<text text-anchor="middle" x="2118.5" y="-58.8" font-family="Times,serif" font-size="14.00">rdf:type</text>
</g>
<!-- LDeimos -->
<g id="node25" class="node"><title>LDeimos</title>
<polygon fill="none" stroke="black" points="1788.5,-0.5 1788.5,-36.5 1858.5,-36.5 1858.5,-0.5 1788.5,-0.5"/>
<text text-anchor="middle" x="1823.5" y="-14.8" font-family="Times,serif" font-size="14.00">Deimos</text>
</g>
<!-- Rhttp://wifa.uni&#45;leipzig.de/semweb/Deimos&#45;&gt;LDeimos -->
<g id="edge25" class="edge"><title>Rhttp://wifa.uni&#45;leipzig.de/semweb/Deimos&#45;&gt;LDeimos</title>
<path fill="none" stroke="black" d="M1865,-89.4427C1854.74,-84.5751 1845.08,-78.2405 1837.5,-70 1831.7,-63.6902 1828.27,-55.1844 1826.26,-46.9539"/>
<polygon fill="black" stroke="black" points="1829.65,-46.0569 1824.39,-36.8616 1822.77,-47.3318 1829.65,-46.0569"/>
</g>
<!-- L6.200000e+0 -->
<g id="node26" class="node"><title>L6.200000e+0</title>
<polygon fill="none" stroke="black" points="1877,-0.5 1877,-36.5 1990,-36.5 1990,-0.5 1877,-0.5"/>
<text text-anchor="middle" x="1933.5" y="-14.8" font-family="Times,serif" font-size="14.00">6.200000e+0</text>
</g>
<!-- Rhttp://wifa.uni&#45;leipzig.de/semweb/Deimos&#45;&gt;L6.200000e+0 -->
<g id="edge26" class="edge"><title>Rhttp://wifa.uni&#45;leipzig.de/semweb/Deimos&#45;&gt;L6.200000e+0</title>
<path fill="none" stroke="black" d="M1933.5,-88.0966C1933.5,-76.2459 1933.5,-60.3169 1933.5,-46.7917"/>
<polygon fill="black" stroke="black" points="1937,-46.584 1933.5,-36.584 1930,-46.584 1937,-46.584"/>
</g>
</g>
</svg>
